{
  "compilerOptions": {
    "baseUrl": ".",
    "paths": {
      "@/components/*": ["src/components/*"],
      "@/slices/*": ["src/slices/*"],
      "@/data/*": ["src/data/*"],
      "@/layouts/*": ["src/layouts/*"],
      "@/lib/*": ["src/lib/*"],
      "@/configs": ["src/configs/index"],
      "@/styles/*": ["src/styles/*"]
    }
  },
  "include": ["src"]
}
