<svg width="9" height="14" viewBox="0 0 9 14" fill="none" xmlns="http://www.w3.org/2000/svg">
<path d="M8.76129 6.45593L2.16119 0.225371C1.84287 -0.0751238 1.3268 -0.0751238 1.00852 0.225371L0.238729 0.952066C-0.0790435 1.25205 -0.0796547 1.73823 0.237371 2.03892L5.46807 7.00002L0.237371 11.9611C-0.0796547 12.2618 -0.0790435 12.748 0.238729 13.0479L1.00852 13.7746C1.32684 14.0751 1.84291 14.0751 2.16119 13.7746L8.76126 7.54407C9.07957 7.24361 9.07957 6.75643 8.76129 6.45593Z" fill="#828282"/>
</svg>
