<svg width="12" height="13" viewBox="0 0 12 13" fill="none" xmlns="http://www.w3.org/2000/svg">
<path d="M11.1127 4.23286C9.11189 0.760081 3.24325 0 3.24325 0C3.24325 0 5.95124 2.89355 2.49059 5.18165C0.30224 6.62581 -0.562922 8.50242 0.37456 10.552C1.0924 12.122 2.61112 12.7615 4.2477 13C3.46557 11.5558 4.07092 9.79193 4.13788 9.60323C5.66731 11.8677 8.55744 9.60323 7.10568 7.14214C9.00743 7.54577 9.29135 10.7748 7.83156 12.7903C9.98777 12.1272 11.4235 10.4603 11.8172 8.97419C12.2324 7.41996 11.9163 5.62198 11.1127 4.23286Z" fill="#A50064"/>
</svg>
